Q3/simulation/qsim/grayJohnson.msim.vcd
$comment
	File created using the following command:
		vcd file grayJohnson.msim.vcd -direction
$end
$date
	Tue Aug 13 09:43:12 2024
$end
$version
	ModelSim Version 10.1d
$end
$timescale
	1ps
$end
$scope module grayJohnson_vlg_vec_tst $end
$var reg 4 ! gray [0:3] $end
$var wire 1 " johnson [0] $end
$var wire 1 # johnson [1] $end
$var wire 1 $ johnson [2] $end
$var wire 1 % johnson [3] $end
$var wire 1 & johnson [4] $end
$var wire 1 ' sampler $end
$scope module i1 $end
$var wire 1 ( gnd $end
$var wire 1 ) vcc $end
$var wire 1 * unknown $end
$var tri1 1 + devclrn $end
$var tri1 1 , devpor $end
$var tri1 1 - devoe $end
$var wire 1 . Mux4~0_combout $end
$var wire 1 / Mux3~0_combout $end
$var wire 1 0 Mux2~0_combout $end
$var wire 1 1 Mux1~0_combout $end
$var wire 1 2 Mux0~0_combout $end
$var wire 1 3 gray~combout [0] $end
$var wire 1 4 gray~combout [1] $end
$var wire 1 5 gray~combout [2] $end
$var wire 1 6 gray~combout [3] $end
$upscope $end
$upscope $end
$enddefinitions $end
#0
$dumpvars
b0 !
0&
0%
0$
0#
0"
x'
0(
1)
x*
1+
1,
1-
0.
0/
00
01
02
06
05
04
03
$end
#2500
b1000 !
13
0'
12
10
1.
1"
1$
1&
#5000
b1100 !
b100 !
14
03
1'
11
0.
1#
0&
#7500
b1100 !
13
0'
00
0$
#10000
b1110 !
b1010 !
b10 !
15
04
03
1'
02
01
10
1/
1.
0"
0#
1$
1%
1&
#12500
b1010 !
13
0'
12
0/
1"
0%
#15000
b1110 !
b110 !
14
03
1'
02
11
1/
0"
1#
1%
#17500
b1110 !
13
0'
12
01
0/
1"
0#
0%
#20000
b1111 !
b1101 !
b1001 !
b1 !
16
05
04
03
1'
02
00
0"
0$
#22500
b1001 !
13
0'
12
10
1"
1$
#25000
b1101 !
b101 !
14
03
1'
11
1/
0.
1#
1%
0&
#27500
b1101 !
13
0'
01
00
0/
0#
0$
0%
#30000
b1111 !
b1011 !
b11 !
15
04
03
1'
02
1/
1.
0"
1%
1&
#32500
b1011 !
13
0'
12
10
0/
1"
1$
0%
#35000
b1111 !
b111 !
14
03
1'
11
1/
1#
1%
#37500
b1111 !
13
0'
01
0/
0#
0%
