Q2/simulation/qsim/BCDDoisEntreCinco.msim.vcd
$comment
	File created using the following command:
		vcd file BCDDoisEntreCinco.msim.vcd -direction
$end
$date
	Tue Aug 13 09:08:50 2024
$end
$version
	ModelSim Version 10.1d
$end
$timescale
	1ps
$end
$scope module BCDDoisEntreCinco_vlg_vec_tst $end
$var reg 4 ! bcd [3:0] $end
$var wire 1 " DoisEntreCinco [4] $end
$var wire 1 # DoisEntreCinco [3] $end
$var wire 1 $ DoisEntreCinco [2] $end
$var wire 1 % DoisEntreCinco [1] $end
$var wire 1 & DoisEntreCinco [0] $end
$var wire 1 ' sampler $end
$scope module i1 $end
$var wire 1 ( gnd $end
$var wire 1 ) vcc $end
$var wire 1 * unknown $end
$var tri1 1 + devclrn $end
$var tri1 1 , devpor $end
$var tri1 1 - devoe $end
$var wire 1 . Mux4~0_combout $end
$var wire 1 / Mux3~0_combout $end
$var wire 1 0 Mux2~0_combout $end
$var wire 1 1 Mux1~0_combout $end
$var wire 1 2 Mux0~0_combout $end
$var wire 1 3 bcd~combout [3] $end
$var wire 1 4 bcd~combout [2] $end
$var wire 1 5 bcd~combout [1] $end
$var wire 1 6 bcd~combout [0] $end
$upscope $end
$upscope $end
$enddefinitions $end
#0
$dumpvars
b0 !
1&
1%
0$
0#
0"
x'
0(
1)
x*
1+
1,
1-
0.
0/
00
01
12
06
05
04
03
$end
#2500
b1 !
16
0'
10
1/
1$
0%
#5000
b11 !
b10 !
06
15
1'
0/
1.
1%
0&
#7500
b11 !
16
0'
11
00
1/
0.
1#
0$
0%
1&
#10000
b111 !
b101 !
b100 !
06
05
14
1'
0/
1.
1%
0&
#12500
b101 !
16
0'
10
1/
1$
0%
#15000
b111 !
b110 !
06
15
1'
01
00
0.
02
0#
0$
1&
1"
#17500
b111 !
16
0'
0/
1.
1%
0&
#20000
b1111 !
b1011 !
b1001 !
b1000 !
06
05
04
13
1'
10
1/
1$
0%
#22500
b1001 !
16
0'
11
00
1#
0$
#25000
b1011 !
b1010 !
06
15
1'
01
12
0#
0"
#27500
b1011 !
16
0'
#30000
b1111 !
b1101 !
b1100 !
06
05
14
1'
#32500
b1101 !
16
0'
#35000
b1111 !
b1110 !
06
15
1'
#37500
b1111 !
16
0'
#40000
b111 !
b11 !
b1 !
b0 !
06
05
04
03
1'
0/
0.
1%
1&
#42500
b1 !
16
0'
10
1/
1$
0%
#45000
b11 !
b10 !
06
15
1'
0/
1.
1%
0&
#47500
b11 !
16
0'
11
00
1/
0.
1#
0$
0%
1&
#50000
b111 !
b101 !
b100 !
06
05
14
1'
0/
1.
1%
0&
#52500
b101 !
16
0'
10
1/
1$
0%
#55000
b111 !
b110 !
06
15
1'
01
00
0.
02
0#
0$
1&
1"
#57500
b111 !
16
0'
0/
1.
1%
0&
#60000
b1111 !
b1011 !
b1001 !
b1000 !
06
05
04
13
1'
10
1/
1$
0%
#62500
b1001 !
16
0'
11
00
1#
0$
#65000
b1011 !
b1010 !
06
15
1'
01
12
0#
0"
#67500
b1011 !
16
0'
#70000
b1111 !
b1101 !
b1100 !
06
05
14
1'
#72500
b1101 !
16
0'
#75000
b1111 !
b1110 !
06
15
1'
#77500
b1111 !
16
0'
